ifpb/ads/reserva/domain/Reserva.class
ifpb/ads/reserva/service/AutorService.class
ifpb/ads/reserva/domain/Link.class
ifpb/ads/reserva/rest/AutorResource.class
ifpb/ads/reserva/domain/LivroLink.class
ifpb/ads/reserva/rest/LivroResource.class
ifpb/ads/reserva/domain/Livro.class
ifpb/ads/reserva/rest/ApplicationConfig.class
ifpb/ads/reserva/domain/Autor.class
ifpb/ads/reserva/service/AutorServiceImpl.class
ifpb/ads/reserva/domain/Status.class
ifpb/ads/reserva/rest/LivroAutorResource$1.class
ifpb/ads/reserva/rest/LivroAutorResource.class
ifpb/ads/reserva/domain/Main.class
ifpb/ads/reserva/rest/exceptions/mapper/NotFoundExceptionMapper.class
ifpb/ads/reserva/rest/ReservaResource.class
ifpb/ads/reserva/rest/exceptions/AutorException.class
ifpb/ads/reserva/rest/exceptions/mapper/ExceptionReponse.class
ifpb/ads/reserva/domain/ConvertLocalDate.class
ifpb/ads/reserva/rest/LivroResource$1.class
